%!PS-Adobe-3.0 EPSF-3.0
%%Creator: cairo 1.13.1 (http://cairographics.org)
%%CreationDate: Wed Mar  9 18:30:47 2016
%%Pages: 1
%%DocumentData: Clean7Bit
%%LanguageLevel: 2
%%BoundingBox: 0 -1 365 335
%%EndComments
%%BeginProlog
save
50 dict begin
/q { gsave } bind def
/Q { grestore } bind def
/cm { 6 array astore concat } bind def
/w { setlinewidth } bind def
/J { setlinecap } bind def
/j { setlinejoin } bind def
/M { setmiterlimit } bind def
/d { setdash } bind def
/m { moveto } bind def
/l { lineto } bind def
/c { curveto } bind def
/h { closepath } bind def
/re { exch dup neg 3 1 roll 5 3 roll moveto 0 rlineto
      0 exch rlineto 0 rlineto closepath } bind def
/S { stroke } bind def
/f { fill } bind def
/f* { eofill } bind def
/n { newpath } bind def
/W { clip } bind def
/W* { eoclip } bind def
/BT { } bind def
/ET { } bind def
/pdfmark where { pop globaldict /?pdfmark /exec load put }
    { globaldict begin /?pdfmark /pop load def /pdfmark
    /cleartomark load def end } ifelse
/BDC { mark 3 1 roll /BDC pdfmark } bind def
/EMC { mark /EMC pdfmark } bind def
/cairo_store_point { /cairo_point_y exch def /cairo_point_x exch def } def
/Tj { show currentpoint cairo_store_point } bind def
/TJ {
  {
    dup
    type /stringtype eq
    { show } { -0.001 mul 0 cairo_font_matrix dtransform rmoveto } ifelse
  } forall
  currentpoint cairo_store_point
} bind def
/cairo_selectfont { cairo_font_matrix aload pop pop pop 0 0 6 array astore
    cairo_font exch selectfont cairo_point_x cairo_point_y moveto } bind def
/Tf { pop /cairo_font exch def /cairo_font_matrix where
      { pop cairo_selectfont } if } bind def
/Td { matrix translate cairo_font_matrix matrix concatmatrix dup
      /cairo_font_matrix exch def dup 4 get exch 5 get cairo_store_point
      /cairo_font where { pop cairo_selectfont } if } bind def
/Tm { 2 copy 8 2 roll 6 array astore /cairo_font_matrix exch def
      cairo_store_point /cairo_font where { pop cairo_selectfont } if } bind def
/g { setgray } bind def
/rg { setrgbcolor } bind def
/d1 { setcachedevice } bind def
%%EndProlog
%%BeginSetup
%%EndSetup
%%Page: 1 1
%%BeginPageSetup
%%PageBoundingBox: 0 -1 365 335
%%EndPageSetup
q 0 -1 365 336 rectclip q
0 g
1.6 w
0 J
0 j
[] 0.0 d
2.9 M q 1 0 0 -1 0 334.340607 cm
37.262 0 m 37.262 331.43 l S Q
37.262 18.911 m 30.859 25.313 l 37.262 2.911 l 43.66 25.313 l h
37.262 18.911 m f*
1.6 w
4 M q 0 1 1 0 0 334.340607 cm
-315.43 37.262 m -309.027 30.859 l -331.43 37.262 l -309.027 43.66 l h
-315.43 37.262 m S Q
1.6 w
2.9 M q 1 0 0 -1 0 334.340607 cm
0 38.059 m 361.145 38.059 l S Q
345.145 296.282 m 338.742 289.88 l 361.145 296.282 l 338.742 302.68 l h
345.145 296.282 m f*
1.6 w
4 M q -1 0 0 1 0 334.340607 cm
-345.145 -38.059 m -338.742 -44.461 l -361.145 -38.059 l -338.742 -31.66
 l h
-345.145 -38.059 m S Q
1.223145 w
[ 1.223145 2.446289] 0 d
q 1 0 0 -1 0 334.340607 cm
48.301 210.672 m 147.891 251.859 l 257.902 188.898 l 205.211 109.461 l 
121.254 48.855 l h
48.301 210.672 m S Q
1 g
54.504 123.669 m 54.504 120.45 51.727 117.837 48.301 117.837 c 44.875 117.837
 42.098 120.45 42.098 123.669 c 42.098 126.891 44.875 129.505 48.301 129.505
 c 51.727 129.505 54.504 126.891 54.504 123.669 c h
54.504 123.669 m f
0 g
[ 1.223145 2.446289] 0 d
q 1 0 0 -1 0 334.340607 cm
54.504 210.672 m 54.504 213.891 51.727 216.504 48.301 216.504 c 44.875 
216.504 42.098 213.891 42.098 210.672 c 42.098 207.449 44.875 204.836 48.301
 204.836 c 51.727 204.836 54.504 207.449 54.504 210.672 c h
54.504 210.672 m S Q
1 g
154.09 82.481 m 154.09 79.259 151.316 76.649 147.891 76.649 c 144.465 76.649
 141.688 79.259 141.688 82.481 c 141.688 85.7 144.465 88.313 147.891 88.313
 c 151.316 88.313 154.09 85.7 154.09 82.481 c h
154.09 82.481 m f
0 g
[ 1.223145 2.446289] 0 d
q 1 0 0 -1 0 334.340607 cm
154.09 251.859 m 154.09 255.082 151.316 257.691 147.891 257.691 c 144.465
 257.691 141.688 255.082 141.688 251.859 c 141.688 248.641 144.465 246.027
 147.891 246.027 c 151.316 246.027 154.09 248.641 154.09 251.859 c h
154.09 251.859 m S Q
1 g
264.102 145.442 m 264.102 142.22 261.328 139.61 257.902 139.61 c 254.477
 139.61 251.699 142.22 251.699 145.442 c 251.699 148.665 254.477 151.274
 257.902 151.274 c 261.328 151.274 264.102 148.665 264.102 145.442 c h
264.102 145.442 m f
1 0 0 rg
[] 0.0 d
q 1 0 0 -1 0 334.340607 cm
264.102 188.898 m 264.102 192.121 261.328 194.73 257.902 194.73 c 254.477
 194.73 251.699 192.121 251.699 188.898 c 251.699 185.676 254.477 183.066
 257.902 183.066 c 261.328 183.066 264.102 185.676 264.102 188.898 c h
264.102 188.898 m S Q
1 g
211.414 224.88 m 211.414 221.657 208.637 219.048 205.211 219.048 c 201.785
 219.048 199.008 221.657 199.008 224.88 c 199.008 228.102 201.785 230.712
 205.211 230.712 c 208.637 230.712 211.414 228.102 211.414 224.88 c h
211.414 224.88 m f
0 g
[ 1.223145 2.446289] 0 d
q 1 0 0 -1 0 334.340607 cm
211.414 109.461 m 211.414 112.684 208.637 115.293 205.211 115.293 c 201.785
 115.293 199.008 112.684 199.008 109.461 c 199.008 106.238 201.785 103.629
 205.211 103.629 c 208.637 103.629 211.414 106.238 211.414 109.461 c h
211.414 109.461 m S Q
1 g
127.457 285.485 m 127.457 282.266 124.68 279.653 121.254 279.653 c 117.828
 279.653 115.051 282.266 115.051 285.485 c 115.051 288.708 117.828 291.321
 121.254 291.321 c 124.68 291.321 127.457 288.708 127.457 285.485 c h
127.457 285.485 m f
0 g
[ 1.223145 2.446289] 0 d
q 1 0 0 -1 0 334.340607 cm
127.457 48.855 m 127.457 52.074 124.68 54.688 121.254 54.688 c 117.828 
54.688 115.051 52.074 115.051 48.855 c 115.051 45.633 117.828 43.02 121.254
 43.02 c 124.68 43.02 127.457 45.633 127.457 48.855 c h
127.457 48.855 m S Q
1 g
162.312 172.391 m 162.312 169.169 159.535 166.559 156.109 166.559 c 152.688
 166.559 149.91 169.169 149.91 172.391 c 149.91 175.614 152.688 178.223 
156.109 178.223 c 159.535 178.223 162.312 175.614 162.312 172.391 c h
162.312 172.391 m f
0 0 1 rg
1.2232 w
[] 0.0 d
q 1 0 0 -1 0 334.340607 cm
162.312 161.949 m 162.312 165.172 159.535 167.781 156.109 167.781 c 152.688
 167.781 149.91 165.172 149.91 161.949 c 149.91 158.727 152.688 156.117 
156.109 156.117 c 159.535 156.117 162.312 158.727 162.312 161.949 c h
162.312 161.949 m S Q
0 g
1.6 w
2.9 M q 1 0 0 -1 0 334.340607 cm
54.32 135 m 359.691 215.848 l S Q
69.789 195.247 m 77.613 199.794 l 54.32 199.341 l 74.336 187.423 l h
69.789 195.247 m f*
1.546708 w
4 M q 1 -0.264759 -0.264759 -1 0 334.340607 cm
99.632 112.715 m 105.818 106.531 l 84.163 112.717 l 105.816 118.902 l h
99.632 112.715 m S Q
1.6 w
2.9 M q 1 0 0 -1 0 334.340607 cm
239.461 258.551 m 276.539 118.508 l S Q
272.441 200.368 m 276.992 192.544 l 276.539 215.833 l 264.617 195.817 l
 h
272.441 200.368 m f*
1.546708 w
4 M q -0.264759 -1 -1 0.264759 0 334.340607 cm
57.79 -287.742 m 63.976 -293.93 l 42.325 -287.745 l 63.979 -281.556 l h
57.79 -287.742 m S Q
0 0 1 rg
124.59 135.501 m 124.59 159.657 l 127.465 159.657 l 127.465 148.782 l 127.465
 147.274 127.824 146.134 128.543 145.36 c 129.262 144.591 130.324 144.204
 131.73 144.204 c 133.273 144.204 134.43 144.641 135.199 145.516 c 135.98
 146.391 136.371 147.704 136.371 149.454 c 136.371 159.657 l 139.246 159.657
 l 139.246 146.188 l 139.246 145.563 139.336 145.102 139.512 144.798 c 139.699
 144.509 139.988 144.36 140.371 144.36 c 140.465 144.36 140.598 144.387 
140.762 144.438 c 140.93 144.501 141.16 144.595 141.449 144.72 c 141.449
 142.407 l 141.023 142.169 140.617 141.993 140.23 141.876 c 139.855 141.762
 139.488 141.704 139.121 141.704 c 138.402 141.704 137.832 141.907 137.402
 142.313 c 136.977 142.72 136.684 143.341 136.527 144.173 c 136.008 143.352
 135.367 142.731 134.605 142.313 c 133.855 141.907 132.973 141.704 131.949
 141.704 c 130.887 141.704 129.98 141.907 129.23 142.313 c 128.492 142.72
 127.902 143.329 127.465 144.141 c 127.465 135.501 l h
124.59 135.501 m f
149.566 145.7 m 146.812 141.993 l 149.707 138.087 l 148.234 138.087 l 146.02
 141.079 l 143.801 138.087 l 142.328 138.087 l 145.285 142.071 l 142.578
 145.7 l 144.055 145.7 l 146.07 142.985 l 148.09 145.7 l h
149.566 145.7 m f
1 0 0 rg
267.605 120.501 m 267.605 111.22 l 264.715 111.22 l 264.715 135.376 l 267.605
 135.376 l 267.605 132.72 l 268.211 133.762 268.969 134.532 269.887 135.032
 c 270.812 135.544 271.918 135.798 273.199 135.798 c 275.324 135.798 277.047
 134.954 278.371 133.266 c 279.703 131.579 280.371 129.36 280.371 126.61
 c 280.371 123.86 279.703 121.641 278.371 119.954 c 277.047 118.266 275.324
 117.423 273.199 117.423 c 271.918 117.423 270.812 117.673 269.887 118.173
 c 268.969 118.684 268.211 119.458 267.605 120.501 c h
277.387 126.61 m 277.387 128.723 276.949 130.38 276.074 131.579 c 275.211
 132.786 274.016 133.391 272.496 133.391 c 270.977 133.391 269.777 132.786
 268.902 131.579 c 268.039 130.38 267.605 128.723 267.605 126.61 c 267.605
 124.497 268.039 122.833 268.902 121.626 c 269.777 120.427 270.977 119.829
 272.496 119.829 c 274.016 119.829 275.211 120.427 276.074 121.626 c 276.949
 122.833 277.387 124.497 277.387 126.61 c h
277.387 126.61 m f
282.32 120.43 m 283.57 120.43 l 283.57 112.821 l 282.32 112.821 l h
282.32 123.395 m 283.57 123.395 l 283.57 121.809 l 282.32 121.809 l h
282.32 123.395 m f
285.156 120.387 m 286.426 120.387 l 286.426 112.532 l 286.426 111.548 286.234
 110.837 285.859 110.395 c 285.488 109.954 284.887 109.735 284.055 109.735
 c 283.57 109.735 l 283.57 110.809 l 283.91 110.809 l 284.391 110.809 284.719
 110.923 284.895 111.149 c 285.07 111.368 285.156 111.829 285.156 112.532
 c h
285.156 123.395 m 286.426 123.395 l 286.426 121.79 l 285.156 121.79 l h
285.156 123.395 m f
0 0 1 rg
151.109 139.583 m 151.559 139.583 l 151.559 136.841 l 151.109 136.841 l
 h
151.109 140.649 m 151.559 140.649 l 151.559 140.079 l 151.109 140.079 l
 h
151.109 140.649 m f
Q Q
showpage
%%Trailer
end restore
%%EOF
