98,864736016082 | 127,980311896486 | 138,312103663772 | 83,5837107121288 | 92,4753088583934 | 104,775013182301 | 119,276932317419 | 189,591811091297 | 94,4951056892415 | 155,783550111847 | 130,166460004644 | 138,956455131959 | 153,136460024844 | 103,753461529709 | 144,96827169626 | 111,578433299002 | 102,865718525117 | 152,282209380578 | 128,160497247523 | 176,785868800484 | 117,644103842659 | 214,061775262946 | 130,67328509282 | 91,5020529813969 | 98,5224426731649 | 91,4887526559406 | 150,692307002292 | 201,0765761195 | 144,396785456165 | 185,169125785924 | 139,989570300725 | 106,664147233268 | 189,189558193676 | 213,161454201226 | 88,7187247751668 | 153,62464134678 | 243,153769445709 | 216,903678719944 | 139,842854111097 | 100,236983720773 | 153,771436192678 | 112,597660413953 | 132,256802714713 | 146,089878680871 | 142,378026663848 | 134,496859672328 | 116,838919037682 | 84,4156149880352
154,683567609799 | 107,938512099095 | 119,548796659651 | 131,492414995813 | 105,487372246802 | 154,959067769042 | 129,424851722042 | 66,9874024438886 | 133,692189538652 | 95,8767259879615 | 204,020153572226 | 118,310532107697 | 136,006878647435 | 124,150042784067 | 118,742031386889 | 94,8719000030274 | 162,496455741813 | 146,398264902466 | 172,589921856942 | 154,699973181445 | 130,767620924887 | 186,261896538036 | 127,450210717672 | 107,893401129379 | 94,1328955528406 | 108,994217354384 | 133,42268648843 | 114,055882060437 | 143,559958712826 | 154,903568070428 | 66,7332551559721 | 87,3126101345864 | 75,1191833768313 | 181,522276994434 | 82,6463873612473 | 127,546938303735 | 138,016105304451 | 138,634085511108 | 97,370640782234 | 263,009542975833 | 183,904911809674 | 122,36617485407 | 99,2050365886799 | 196,803899107936 | 140,260313734565 | 190,894640203426 | 110,857289573227 | 99,6819613982853
144,451982986578 | 99,2245714344382 | 74,5068854450633 | 140,94883912231 | 120,840959655054 | 107,126455355088 | 108,178204435314 | 91,3506522744656 | 117,263088917092 | 179,087303030391 | 103,784491587308 | 122,203754079851 | 89,2308629648485 | 188,669876294145 | 129,052225711554 | 207,249031855228 | 117,524158746047 | 82,4428852029536 | 160,525491811351 | 145,203426077223 | 155,350332390849 | 149,051510635067 | 64,6843277544801 | 104,378935621732 | 228,882572924496 | 240,936269212191 | 131,205178774925 | 189,715274455032 | 181,117590005993 | 216,710566736223 | 128,657693026141 | 84,8077289305594 | 97,4160990502126 | 72,5348651303252 | 85,4698604588595 | 149,83708987175 | 174,732506887436 | 136,22557840267 | 183,953409048896 | 171,938822157737 | 122,142709261517 | 97,8953545711693 | 191,307518583685 | 175,186916075975 | 151,301681199598 | 214,015124272658 | 180,820236101776 | 140,664182927831
92,7547461134766 | 102,28886273105 | 163,816958185541 | 96,9205881370587 | 142,508028397883 | 133,464797544919 | 159,401500584413 | 66,7786816389014 | 135,289542261783 | 103,163175437861 | 90,3358979997653 | 119,012942874519 | 133,010193555082 | 127,216199834094 | 175,855008592675 | 124,913791499994 | 84,4496764532291 | 106,581593823626 | 137,435977947925 | 236,233105018991 | 86,3074279545269 | 132,625252282715 | 121,900490802499 | 134,74235189234 | 107,703851607116 | 90,2940428830584 | 176,939093667513 | 116,804040835806 | 85,0423891487062 | 100,887364913726 | 120,631232456161 | 117,684888700552 | 147,439172723248 | 157,162637443441 | 164,457607793906 | 142,859955780881 | 124,972724092365 | 141,476892589342 | 112,093273967117 | 109,235490633949 | 116,331022406059 | 163,725078196879 | 112,81947944753 | 147,948018407312 | 76,7913708202735 | 125,387738747029 | 141,392488103806 | 131,238399664143
160,032242468316 | 119,635820874425 | 106,691081494809 | 88,4766606251137 | 100,800550284604 | 128,357491248326 | 91,6425625630582 | 100,754863464313 | 152,960180741411 | 108,974426912847 | 192,007674025936 | 99,6312312007285 | 145,927751992271 | 172,598667058272 | 184,907810770317 | 213,692535440998 | 116,098802544548 | 142,58057939307 | 187,080976430063 | 83,7361422838505 | 143,114923131054 | 86,6025598471376 | 113,05267404883 | 212,977123146306 | 103,721322839438 | 146,70878958155 | 144,830257117919 | 99,641501214297 | 188,483390958628 | 95,1425963933408 | 145,777966427977 | 73,3685318237341 | 110,915270803756 | 151,966630723968 | 111,869745484285 | 104,520590726851 | 152,947099260116 | 156,966058373353 | 208,848128008006 | 81,8362131280895 | 81,1571240047496 | 142,448170367729 | 171,290051630588 | 115,236594081367 | 170,851214894839 | 167,20199186857 | 146,600225089846 | 117,505212625782
114,61481050574 | 102,531421073278 | 77,8020685753495 | 192,426372331739 | 121,803659587055 | 138,070601017949 | 146,088497658631 | 111,905391506517 | 118,647702069088 | 158,847493213401 | 93,2997122521086 | 111,431440949073 | 140,814904060561 | 108,613501840295 | 82,1321161625815 | 119,381628645139 | 128,940782278407 | 98,2655931963351 | 107,966685830082 | 108,496172013282 | 115,237731551898 | 82,9460225042664 | 177,734272464306 | 129,803083382589 | 150,700002591577 | 157,657887591305 | 112,472989987817 | 197,467690479946 | 113,040291937437 | 121,629103987509 | 213,958929639953 | 122,004059497218 | 204,280714534875 | 191,230450551354 | 99,4554273805864 | 139,328240846921 | 110,156288321414 | 123,407514534826 | 96,205150196994 | 136,053697691649 | 179,398198504435 | 155,365972579377 | 176,371589884241 | 244,531058094554 | 141,503159592151 | 151,252547771882 | 119,541233495377 | 244,706876196054
133,536512565279 | 131,479675402794 | 106,896190253938 | 59,1572424314391 | 141,944551901288 | 89,6227035724378 | 183,937706681922 | 108,317726339158 | 125,069332093084 | 137,874335019784 | 105,247947166414 | 99,0560008833778 | 181,071410221657 | 143,235991534397 | 149,415996887549 | 146,709703702187 | 172,258956226118 | 191,376780434842 | 133,807564309328 | 63,3681959743744 | 180,455218665432 | 120,884894441332 | 70,8534768654346 | 108,675650839261 | 102,231961374679 | 103,140659922887 | 238,237352289531 | 138,119937180084 | 142,637379161766 | 148,310087411229 | 145,608968036711 | 132,915346312728 | 166,787549656117 | 111,085872824883 | 86,2629529545967 | 67,6900590007215 | 89,0186932052573 | 168,904389432935 | 147,019563061262 | 107,066258616991 | 149,552137967491 | 181,148934168258 | 157,631799710372 | 90,5092072045285 | 116,244728109399 | 92,3167673375646 | 147,591730206866 | 108,516575007775
120,848811898863 | 81,9429199646446 | 122,561919725771 | 134,266846919042 | 113,982395453536 | 133,95743243178 | 130,398725841352 | 119,647734917537 | 109,768423321375 | 106,321568193075 | 133,115037299631 | 132,485897340684 | 111,610894054942 | 135,620496912482 | 115,059167397506 | 115,026715029982 | 200,915940103488 | 122,961088784677 | 162,992632942538 | 116,98696231184 | 138,360172020207 | 149,614730998977 | 199,181482489185 | 113,676611371913 | 168,593275536553 | 117,457491669352 | 104,277677089032 | 109,782738624329 | 70,6451686579442 | 136,384701938432 | 181,33722962711 | 113,58030560001 | 109,56459055959 | 182,38712366272 | 161,276345352175 | 140,169970624148 | 146,87671432769 | 171,51637445709 | 151,725938107976 | 102,130547152953 | 104,724159242869 | 151,907523647138 | 178,348994203539 | 136,481826696635 | 162,87449865602 | 150,431958544107 | 102,893883671098 | 112,588372337003
88,6217331038386 | 98,7011452457504 | 112,912576745123 | 156,797061156028 | 151,164180626188 | 136,7815644647 | 117,709262330073 | 81,2598937746848 | 123,393267296114 | 94,5362519200425 | 108,631965504441 | 131,094783822331 | 195,715696354151 | 166,269565536208 | 89,4805916708203 | 150,498598869016 | 129,129896697806 | 105,725682906573 | 147,502643878765 | 124,798630359404 | 145,911859642142 | 143,795247197985 | 121,655184696947 | 102,362853407721 | 128,915685312148 | 92,2354760375241 | 142,759256562963 | 57,2040909562095 | 75,855579250937 | 118,25210618732 | 173,081176487596 | 189,809568358471 | 104,036897774733 | 144,57219090198 | 108,3522425174 | 127,49624626947 | 140,611880450512 | 171,433124054807 | 146,941075206839 | 79,2023626786999 | 221,994542557184 | 137,749567637723 | 185,494845864582 | 133,679730799799 | 77,561079332652 | 125,092479038822 | 162,211610835038 | 91,8621041348994
112,489633586856 | 155,028818273935 | 229,348469209994 | 108,294954031305 | 103,640237953443 | 189,047337320061 | 131,807446716991 | 124,146477373349 | 110,976734484234 | 170,103973404353 | 126,732869073386 | 146,367060659759 | 162,169109087045 | 115,796206658146 | 118,722133252359 | 155,156041999764 | 136,632275902611 | 133,653165333871 | 122,63741467746 | 179,991113341955 | 154,471747276402 | 107,121482583393 | 124,405188762492 | 104,178483437136 | 137,257147388497 | 67,402188675565 | 130,933568568541 | 110,855193219532 | 155,299819677796 | 172,083699288865 | 168,597621052534 | 167,049590114731 | 82,811341032603 | 102,34035953681 | 212,362908812911 | 147,481029044461 | 100,185099127575 | 207,934062510557 | 87,7453032855714 | 205,334794348346 | 154,899023737559 | 87,1078100724852 | 151,557535331072 | 124,124148324281 | 199,453160745464 | 111,267301601835 | 82,9128265823074 | 125,89886146707
